25

10
7
6
-2
3
-1

1
5
7
10
3
-3
-3
-3
-1
-1
10
5
10
-2
-1
-1

4
3
-1
3
4
9
-2

3
-1
3
5
5
-3
-2

8
7
9
9
-1
-1
-2
-1
1
-1

3
9
5
6
-1
-2
-1
-1
5
2
9
5
8
-5
-1
-1
-1

6
2
2
7
10
-1
-2
-2
-1

6
6
7
2
7
-1
-3
-1
-1
-1
2
6
1

10
5
8
2
1
-5
-3
-1
-1

5
1
7
-1
-2
3
8
5
7
-3
-3
-1
-1
-1

2
9
6
9
3
-2
-4
-3
9

7
3
-1
-1

5
9
6
-1
-1
10
10
-2
-1
-1

9
7
6
2
10
1
-1
-5

4
8
1
2
-3
-3
-1
-1
10
1
2
6
2
-5
-1
-1
-1
-1

9
2
5
6
4
-3
-4
10
-3

9
7
-1
-1
9
3
-2
-1

10
-1
7

9
1
2
10
10
3
3
-1
-3
-4
-4
-2
-2

9
7
3
3
7
1
-5
-5

7
10
9
7
9
-2
-3
-2
-2

7
2
1
6
3
-4
-3
-1
4
3
-3
-1
-1
-1

6
4
-1
-1
7
7
4
4
3
-5

3
6
1
1
-2
-1
-2
3
10
4
10
-2
-4
-1
-1
-1

6
8
-1
3
5
