26

3
5
2
10
3
2
-5

8
3
10
3
-2
-2
10
8

7
2
9
2
8
10
5
1
-6
-6
-4
-1
-3
-3
-2
-1

6
2
3
8
8
-3
-3
6
5
-4
-3
-1
-1

7
-1
4
9
2
-3
-1
-1

3
1
2
4
-3

2
1
5
4
6
8
-4
-2
-2
-2
-1
-1

8
1
6
7
8
-1

7
1
7
6
3
3
-4

5
7
3
5
4
-4
-2
-1
4
4
6
-1
-2
-3

1
4
5
2
-4
-3
-1
-1

2
6
5
9
5

5
10
-2
8
-2
-1

6
2
9
2
10
2
3
9
-6
-5
-5
-3
-1

1
8
4
3
6
9
7
5
2
-1
-6
-6
-2
-2

1
2
-1
3
3
1
6
-2
-1

4
3
8
8
-1
-2
-1
-1

5
9
7
-1
-2

2
5
1
-3
-1
2
2
9
2
3
-4
-2
-2
-3
-2
-1

6
10
7
7
-1
-1
-2
-1
9

2
3
3
3
10
-2
-3
-3
2
2
-4
-1
-2

2
1
9
9
-4
5
10
5
-6

7
7
4
9
-4
4
-4
-1

10
5
7
3
-2
-3
9
6
7
-1
-1
-2
-1

5
1
6
7
1
3
-6
-2
-3
-3
-1
-1

9
2
10
-1
-2
-1
4
1
5
6
-2
