20

5
7
4
3
3
2
4
1
8
2
8
5
-8
-3
-1
-2
-3

4
4
1
4
9
3
-3
-1
-2
3
3
5
8
4
-4
-2
-1
-1

4
6
8
8
8
3
-3
-3
-1
2
5
5
3
-1
-2
-1

5
3
7
2
7
1
1
-3
5
9
7
8
9
3
7
-1
-5
-5
-4
-2
-4
-2

4
8
2
8
6
4
-1
-2
-2
-1
2
9
5

4
3
2
6
9
1
-4
3
6
7
8
5
-5
-2
-4
-2
-1

1
2
1
-1
2
6
5

3
5
8
9
2
-1
-1
4
6
6
3
9

2
6
10
1
1
2
-3
-2

4
3
2
4
3
2
-1
-3
1
7
2
-1
-1

2
1
8
2
-2
-1
3
7
5
8

4
9
3
1
8
1
1
3
-1
-3
-1

2
5
9
3
2
3
1
4
-1
-1
-1
-1

2
9
10
1
-1
4
4
8
9
6
5
-4
-3
-1
-2
-1

4
10
8
8
2
2
-3
-3
2
4
7

1
9
1
-1
3
2
2
1
3
-3
-1
-1

1
5
1
-1
4
6
10
2
3
2
-4
-1

3
4
9
9
3
2
1
8
4
-1
-4
-1
-2

2
4
1
2
-2
-1
2
9
3
1
-1

4
5
3
4
6
3
-2
-3
-2
2
4
1
2
-1
-2
